…
windspeed.df <- weather.df %>%
  group_by(wind_speed) %>%
  filter(wind_speed < 200)

  ### What direction has the highest median speed at each airport. 

  median_wind_speed <- weather.df %>% 
    na.omit(wind_dir)%>%                      ### removes N/A
    filter(wind_speed <250)%>% 
    group_by(origin, wind_dir)%>%
    summarise(median_wind_speed = median(wind_speed))%>%
    print()
```

    ## Source: local data frame [111 x 3]
    ## Groups: origin [?]
    ## 
    ##    origin wind_dir median_wind_speed
    ##     <chr>    <dbl>             <dbl>
    ## 1     EWR        0           0.00000
    ## 2     EWR       10           9.20624
    ## 3     EWR       20           8.63085
    ## 4     EWR       30           8.05546
    ## 5     EWR       40           9.20624
    ## 6     EWR       50           8.05546
    ## 7     EWR       60           8.05546
    ## 8     EWR       70           6.90468
    ## 9     EWR       80           6.32929
    ## 10    EWR       90           6.32929
    ## # ... with 101 more rows
…
